module gitlab.com/wtfismyip/wtfismyip

go 1.21rc2

require (
	github.com/caddyserver/certmagic v0.19.1
	github.com/cyphar/filepath-securejoin v0.2.4
	github.com/go-redis/redis/v8 v8.11.5
	github.com/gorilla/mux v1.8.0
	github.com/oschwald/geoip2-golang v1.9.0
	github.com/prometheus/client_golang v1.16.0
	github.com/slok/go-http-metrics v0.10.0
)

require (
	github.com/beorn7/perks v1.0.1 // indirect
	github.com/cespare/xxhash/v2 v2.2.0 // indirect
	github.com/dgryski/go-rendezvous v0.0.0-20200823014737-9f7001d12a5f // indirect
	github.com/golang/protobuf v1.5.3 // indirect
	github.com/klauspost/cpuid/v2 v2.2.5 // indirect
	github.com/libdns/libdns v0.2.1 // indirect
	github.com/matttproud/golang_protobuf_extensions v1.0.4 // indirect
	github.com/mholt/acmez v1.2.0 // indirect
	github.com/miekg/dns v1.1.55 // indirect
	github.com/oschwald/maxminddb-golang v1.11.0 // indirect
	github.com/prometheus/client_model v0.3.0 // indirect
	github.com/prometheus/common v0.42.0 // indirect
	github.com/prometheus/procfs v0.10.1 // indirect
	github.com/zeebo/blake3 v0.2.3 // indirect
	go.uber.org/atomic v1.11.0 // indirect
	go.uber.org/multierr v1.11.0 // indirect
	go.uber.org/zap v1.24.0 // indirect
	golang.org/x/crypto v0.10.0 // indirect
	golang.org/x/mod v0.11.0 // indirect
	golang.org/x/net v0.11.0 // indirect
	golang.org/x/sys v0.9.0 // indirect
	golang.org/x/text v0.10.0 // indirect
	golang.org/x/tools v0.10.0 // indirect
	google.golang.org/protobuf v1.30.0 // indirect
)
